<?xml version="1.0" encoding='utf-8'?>
<?xml-stylesheet type="text/xsl" href="https://toontastic.sunrise.games/blog/roller-ui/styles/atom.xsl" media="screen"?><feed xmlns="https://www.w3.org/2005/Atom">
    <title type="html">Toontown What&apos;s New Blog (Comments)</title>
    <id>https://toontastic.sunrise.games/blog/toontown/feed/comments/atom</id>
    <link rel="alternate" type="text/html" href="https://toontastic.sunrise.games/blog/toontown/" />
    <link rel="self" type="application/atom+xml" href="https://toontastic.sunrise.games/blog/toontown/feed/comments/atom" />
        <updated>2013-03-30T00:29:54-07:00</updated>
    <generator uri="https://roller.apache.org" version="4.0.1 (20120920120736:hongc001)">Apache Roller (incubating)</generator>
            <entry>
        <id>https://toontastic.sunrise.games/blog/toontown/entry/silly_meter_zips_to_a#comment-1364597079000</id> 
        <title type="html">Re: Silly Meter Zips to a Zany Zenith!</title>
        <author><name>Waterbender</name></author>
        <link rel="alternate" type="text/html" href="https://toontastic.sunrise.games/blog/toontown/entry/silly_meter_zips_to_a#comment-1364597079000"/>
        <published>2013-03-29T15:44:39-07:00</published>
        <updated>2013-03-29T15:44:39-07:00</updated> 
        <content type="html">Wow the silly meter is going off the chart. I thought I saw Mickey in DAISY GARDENS?! And I thought I heard my doodle say something to me! Whats going on here but more importantly whats the big suprize?</content>
    </entry>
        <entry>
        <id>https://toontastic.sunrise.games/blog/toontown/entry/silly_meter_zips_to_a#comment-1364594668000</id> 
        <title type="html">Re: Silly Meter Zips to a Zany Zenith!</title>
        <author><name>YIPPYYAPY</name></author>
        <link rel="alternate" type="text/html" href="https://toontastic.sunrise.games/blog/toontown/entry/silly_meter_zips_to_a#comment-1364594668000"/>
        <published>2013-03-29T15:04:28-07:00</published>
        <updated>2013-03-29T15:04:28-07:00</updated> 
        <content type="html">WOW so SILLY so COOL</content>
    </entry>
        <entry>
        <id>https://toontastic.sunrise.games/blog/toontown/entry/silly_meter_zips_to_a#comment-1364590637000</id> 
        <title type="html">Re: Silly Meter Zips to a Zany Zenith!</title>
        <author><name>Pinkcat ( 38 laff )</name></author>
        <link rel="alternate" type="text/html" href="https://toontastic.sunrise.games/blog/toontown/entry/silly_meter_zips_to_a#comment-1364590637000"/>
        <published>2013-03-29T13:57:17-07:00</published>
        <updated>2013-03-29T13:57:17-07:00</updated> 
        <content type="html">Time to put on my rainbow wig and let the pies fly and the safes drop.</content>
    </entry>
        <entry>
        <id>https://toontastic.sunrise.games/blog/toontown/entry/silly_meter_zips_to_a#comment-1364590173000</id> 
        <title type="html">Re: Silly Meter Zips to a Zany Zenith!</title>
        <author><name>Miss Supernoodle</name></author>
        <link rel="alternate" type="text/html" href="https://toontastic.sunrise.games/blog/toontown/entry/silly_meter_zips_to_a#comment-1364590173000"/>
        <published>2013-03-29T13:49:33-07:00</published>
        <updated>2013-03-29T13:49:33-07:00</updated> 
        <content type="html">I can&apos;t wait for the silly meter to explode!!! I missed it last year sadly :&apos;( but I&apos;m good this year! :)!</content>
    </entry>
        <entry>
        <id>https://toontastic.sunrise.games/blog/toontown/entry/silly_meter_zips_to_a#comment-1364590080000</id> 
        <title type="html">Re: Silly Meter Zips to a Zany Zenith!</title>
        <author><name>ursula giggle pocket</name></author>
        <link rel="alternate" type="text/html" href="https://toontastic.sunrise.games/blog/toontown/entry/silly_meter_zips_to_a#comment-1364590080000"/>
        <published>2013-03-29T13:48:00-07:00</published>
        <updated>2013-03-29T13:48:00-07:00</updated> 
        <content type="html">thank you sooooooo much toontown!!!! Things Sure Are Goofy Around Here!!!!   Doodles CAN Talk??!?</content>
    </entry>
        <entry>
        <id>https://toontastic.sunrise.games/blog/toontown/entry/silly_meter_zips_to_a#comment-1364589898000</id> 
        <title type="html">Re: Silly Meter Zips to a Zany Zenith!</title>
        <author><name>Princess Fancy McQuack (109)</name></author>
        <link rel="alternate" type="text/html" href="https://toontastic.sunrise.games/blog/toontown/entry/silly_meter_zips_to_a#comment-1364589898000"/>
        <published>2013-03-29T13:44:58-07:00</published>
        <updated>2013-03-29T13:44:58-07:00</updated> 
        <content type="html">Hooray!!!! My favorite time in the ToonYear! Toons of the world UNITE!
</content>
    </entry>
        <entry>
        <id>https://toontastic.sunrise.games/blog/toontown/entry/silly_meter_zips_to_a#comment-1364589397000</id> 
        <title type="html">Re: Silly Meter Zips to a Zany Zenith!</title>
        <author><name>Prismlight Gem Guardian</name></author>
        <link rel="alternate" type="text/html" href="https://toontastic.sunrise.games/blog/toontown/entry/silly_meter_zips_to_a#comment-1364589397000"/>
        <published>2013-03-29T13:36:37-07:00</published>
        <updated>2013-03-29T13:36:37-07:00</updated> 
        <content type="html">April Toons&apos; Week is fun! Do you have a nice surprise in store? I am guessing you will say yes, but we shall see what you have prepared!</content>
    </entry>
        <entry>
        <id>https://toontastic.sunrise.games/blog/toontown/entry/silly_meter_zips_to_a#comment-1364589351000</id> 
        <title type="html">Re: Silly Meter Zips to a Zany Zenith!</title>
        <author><name>Cassie</name></author>
        <link rel="alternate" type="text/html" href="https://toontastic.sunrise.games/blog/toontown/entry/silly_meter_zips_to_a#comment-1364589351000"/>
        <published>2013-03-29T13:35:51-07:00</published>
        <updated>2013-03-29T13:35:51-07:00</updated> 
        <content type="html">Wow! This is awesome I love it when the doodles talk and you get to jump really high! Now I might have a chance at winning while roof racing with friends! GO SILLY METER!!</content>
    </entry>
        <entry>
        <id>https://toontastic.sunrise.games/blog/toontown/entry/silly_meter_zips_to_a#comment-1364588157000</id> 
        <title type="html">Re: Silly Meter Zips to a Zany Zenith!</title>
        <author><name>Trappenbocker</name></author>
        <link rel="alternate" type="text/html" href="https://toontastic.sunrise.games/blog/toontown/entry/silly_meter_zips_to_a#comment-1364588157000"/>
        <published>2013-03-29T13:15:57-07:00</published>
        <updated>2013-03-29T13:15:57-07:00</updated> 
        <content type="html">Yes! More dancing street props! Woo hoo! Now we can get more bonus damage on top of ALL the bonus damage we already have!

I certainly hope the Cogs are prepared for this, though. Tee hee!</content>
    </entry>
        <entry>
        <id>https://toontastic.sunrise.games/blog/toontown/entry/silly_meter_zips_to_a#comment-1364587786000</id> 
        <title type="html">Re: Silly Meter Zips to a Zany Zenith!</title>
        <author><name>Prof. Tom Cheezyfish</name></author>
        <link rel="alternate" type="text/html" href="https://toontastic.sunrise.games/blog/toontown/entry/silly_meter_zips_to_a#comment-1364587786000"/>
        <published>2013-03-29T13:09:46-07:00</published>
        <updated>2013-03-29T13:09:46-07:00</updated> 
        <content type="html">This is GREAT!!! I love April Toon&apos;s Week! Can&apos;t wait to get started with all the wacky and silly things going on!</content>
    </entry>
        <entry>
        <id>https://toontastic.sunrise.games/blog/toontown/entry/silly_meter_zips_to_a#comment-1364581885000</id> 
        <title type="html">Re: Silly Meter Zips to a Zany Zenith!</title>
        <author><name>Princess Daffodil Funnymuffin - 107 laff</name></author>
        <link rel="alternate" type="text/html" href="https://toontastic.sunrise.games/blog/toontown/entry/silly_meter_zips_to_a#comment-1364581885000"/>
        <published>2013-03-29T11:31:25-07:00</published>
        <updated>2013-03-29T11:31:25-07:00</updated> 
        <content type="html">Yay! I&apos;m super excited.</content>
    </entry>
        <entry>
        <id>https://toontastic.sunrise.games/blog/toontown/entry/silly_meter_zips_to_a#comment-1364580748000</id> 
        <title type="html">Re: Silly Meter Zips to a Zany Zenith!</title>
        <author><name>Chris</name></author>
        <link rel="alternate" type="text/html" href="https://toontastic.sunrise.games/blog/toontown/entry/silly_meter_zips_to_a#comment-1364580748000"/>
        <published>2013-03-29T11:12:28-07:00</published>
        <updated>2013-03-29T11:12:28-07:00</updated> 
        <content type="html">YAY finally to see April Toons Again.</content>
    </entry>
        <entry>
        <id>https://toontastic.sunrise.games/blog/toontown/entry/silly_meter_zips_to_a#comment-1364577926000</id> 
        <title type="html">Re: Silly Meter Zips to a Zany Zenith!</title>
        <author><name>Little Peanut</name></author>
        <link rel="alternate" type="text/html" href="https://toontastic.sunrise.games/blog/toontown/entry/silly_meter_zips_to_a#comment-1364577926000"/>
        <published>2013-03-29T10:25:26-07:00</published>
        <updated>2013-03-29T10:25:26-07:00</updated> 
        <content type="html">Wow!  April Fools Week is finally here!  I wonder what surprise is in store.......</content>
    </entry>
        <entry>
        <id>https://toontastic.sunrise.games/blog/toontown/entry/silly_meter_zips_to_a#comment-1364577355000</id> 
        <title type="html">Re: Silly Meter Zips to a Zany Zenith!</title>
        <author><name>Omar</name></author>
        <link rel="alternate" type="text/html" href="https://toontastic.sunrise.games/blog/toontown/entry/silly_meter_zips_to_a#comment-1364577355000"/>
        <published>2013-03-29T10:15:55-07:00</published>
        <updated>2013-03-29T10:15:55-07:00</updated> 
        <content type="html">Its only begun! GET READY! CAUSE THINGS... ARE..... ABOUT...... TO GET....... SILLY!</content>
    </entry>
        <entry>
        <id>https://toontastic.sunrise.games/blog/toontown/entry/silly_meter_zips_to_a#comment-1364574803000</id> 
        <title type="html">Re: Silly Meter Zips to a Zany Zenith!</title>
        <author><name>Aqua fire ball mouse</name></author>
        <link rel="alternate" type="text/html" href="https://toontastic.sunrise.games/blog/toontown/entry/silly_meter_zips_to_a#comment-1364574803000"/>
        <published>2013-03-29T09:33:23-07:00</published>
        <updated>2013-03-29T09:33:23-07:00</updated> 
        <content type="html">I found the silly meter when I was getting Ice cream cones... I got defeated by the big cheese!</content>
    </entry>
        <entry>
        <id>https://toontastic.sunrise.games/blog/toontown/entry/silly_meter_zips_to_a#comment-1364574626000</id> 
        <title type="html">Re: Silly Meter Zips to a Zany Zenith!</title>
        <author><name>Master Frizzy Flippenswirl</name></author>
        <link rel="alternate" type="text/html" href="https://toontastic.sunrise.games/blog/toontown/entry/silly_meter_zips_to_a#comment-1364574626000"/>
        <published>2013-03-29T09:30:26-07:00</published>
        <updated>2013-03-29T09:30:26-07:00</updated> 
        <content type="html">WOW! i just saw the owners switch playgrounds and the low gravity! But, I havent seen my doodle say a word!</content>
    </entry>
        <entry>
        <id>https://toontastic.sunrise.games/blog/toontown/entry/silly_meter_zips_to_a#comment-1364574378000</id> 
        <title type="html">Re: Silly Meter Zips to a Zany Zenith!</title>
        <author><name>Ashton</name></author>
        <link rel="alternate" type="text/html" href="https://toontastic.sunrise.games/blog/toontown/entry/silly_meter_zips_to_a#comment-1364574378000"/>
        <published>2013-03-29T09:26:18-07:00</published>
        <updated>2013-03-29T09:26:18-07:00</updated> 
        <content type="html">OMG THIS IS GONNA BE FUN! THANKS FLIPPY!</content>
    </entry>
        <entry>
        <id>https://toontastic.sunrise.games/blog/toontown/entry/silly_meter_zips_to_a#comment-1364573891000</id> 
        <title type="html">Re: Silly Meter Zips to a Zany Zenith!</title>
        <author><name>Super Stinky Sourzilla</name></author>
        <link rel="alternate" type="text/html" href="https://toontastic.sunrise.games/blog/toontown/entry/silly_meter_zips_to_a#comment-1364573891000"/>
        <published>2013-03-29T09:18:11-07:00</published>
        <updated>2013-03-29T09:18:11-07:00</updated> 
        <content type="html">I just heard my doodle talk!!!</content>
    </entry>
        <entry>
        <id>https://toontastic.sunrise.games/blog/toontown/entry/silly_meter_zips_to_a#comment-1364573468000</id> 
        <title type="html">Re: Silly Meter Zips to a Zany Zenith!</title>
        <author><name>Miss Furball (104laff)</name></author>
        <link rel="alternate" type="text/html" href="https://toontastic.sunrise.games/blog/toontown/entry/silly_meter_zips_to_a#comment-1364573468000"/>
        <published>2013-03-29T09:11:08-07:00</published>
        <updated>2013-03-29T09:11:08-07:00</updated> 
        <content type="html">I wanted to look silly by buying the Anti Cog Control Hat and Flippy ................................... I LOOK SUPER SILLY!</content>
    </entry>
        <entry>
        <id>https://toontastic.sunrise.games/blog/toontown/entry/silly_meter_zips_to_a#comment-1364568297000</id> 
        <title type="html">Re: Silly Meter Zips to a Zany Zenith!</title>
        <author><name>IceBerg</name></author>
        <link rel="alternate" type="text/html" href="https://toontastic.sunrise.games/blog/toontown/entry/silly_meter_zips_to_a#comment-1364568297000"/>
        <published>2013-03-29T07:44:57-07:00</published>
        <updated>2013-03-29T07:44:57-07:00</updated> 
        <content type="html">A silly surprise hmm? That&apos;ll be something to look forward to. Just had a fantastic chat with Eclipse, my doodle.</content>
    </entry>
        <entry>
        <id>https://toontastic.sunrise.games/blog/toontown/entry/silly_meter_zips_to_a#comment-1364567368000</id> 
        <title type="html">Re: Silly Meter Zips to a Zany Zenith!</title>
        <author><name>Tommy Marbleroller (16 Laff)</name></author>
        <link rel="alternate" type="text/html" href="https://toontastic.sunrise.games/blog/toontown/entry/silly_meter_zips_to_a#comment-1364567368000"/>
        <published>2013-03-29T07:29:28-07:00</published>
        <updated>2013-03-29T07:29:28-07:00</updated> 
        <content type="html">For a low toon, I&apos;ve been to EVERY playground...and saw a different playground owner in each, except Acorn Acres and Donald&apos;s Dock. I&apos;m pretty amazed, especially with the talkative doodles and decreased gravity at Estates! Maybe there will be even MORE Toontastic surprises up the Toon Scientists&apos; sleeves next April Toons&apos; Week!</content>
    </entry>
        <entry>
        <id>https://toontastic.sunrise.games/blog/toontown/entry/silly_meter_zips_to_a#comment-1364565627000</id> 
        <title type="html">Re: Silly Meter Zips to a Zany Zenith!</title>
        <author><name>Lady Katswell (81 Laff)</name></author>
        <link rel="alternate" type="text/html" href="https://toontastic.sunrise.games/blog/toontown/entry/silly_meter_zips_to_a#comment-1364565627000"/>
        <published>2013-03-29T07:00:27-07:00</published>
        <updated>2013-03-29T07:00:27-07:00</updated> 
        <content type="html">Amazing! I wonder what Goofy&apos;s doing in Dreamland. Well, at least we&apos;ll have a toon who doesn&apos;t talk in his sleep to us in Donald&apos;s Dreamland!</content>
    </entry>
        <entry>
        <id>https://toontastic.sunrise.games/blog/toontown/entry/silly_meter_zips_to_a#comment-1364565472000</id> 
        <title type="html">Re: Silly Meter Zips to a Zany Zenith!</title>
        <author><name>Anthony (94 laff)</name></author>
        <link rel="alternate" type="text/html" href="https://toontastic.sunrise.games/blog/toontown/entry/silly_meter_zips_to_a#comment-1364565472000"/>
        <published>2013-03-29T06:57:52-07:00</published>
        <updated>2013-03-29T06:57:52-07:00</updated> 
        <content type="html">YES! Silly Meter is back! Good thing I got my Railroad yesterday, so I can blast those cogs and make them go BOOM!</content>
    </entry>
        <entry>
        <id>https://toontastic.sunrise.games/blog/toontown/entry/silly_meter_zips_to_a#comment-1364564881000</id> 
        <title type="html">Re: Silly Meter Zips to a Zany Zenith!</title>
        <author><name>Chocolate Coated Gummy Parrot</name></author>
        <link rel="alternate" type="text/html" href="https://toontastic.sunrise.games/blog/toontown/entry/silly_meter_zips_to_a#comment-1364564881000"/>
        <published>2013-03-29T06:48:01-07:00</published>
        <updated>2013-03-29T06:48:01-07:00</updated> 
        <content type="html">Wow! The silly meter maxed! I gotta wear my samba hat.
</content>
    </entry>
        <entry>
        <id>https://toontastic.sunrise.games/blog/toontown/entry/silly_meter_zips_to_a#comment-1364561375000</id> 
        <title type="html">Re: Silly Meter Zips to a Zany Zenith!</title>
        <author><name>Miss Flappy</name></author>
        <link rel="alternate" type="text/html" href="https://toontastic.sunrise.games/blog/toontown/entry/silly_meter_zips_to_a#comment-1364561375000"/>
        <published>2013-03-29T05:49:35-07:00</published>
        <updated>2013-03-29T05:49:35-07:00</updated> 
        <content type="html">I can&apos;t wait!! I&apos;m so excited to see what&apos;s going to happen! Toontown, let&apos;s get silly!!!!!! :D </content>
    </entry>
        <entry>
        <id>https://toontastic.sunrise.games/blog/toontown/entry/silly_meter_zips_to_a#comment-1364561322000</id> 
        <title type="html">Re: Silly Meter Zips to a Zany Zenith!</title>
        <author><name>Cool Chroma (46 Laff)</name></author>
        <link rel="alternate" type="text/html" href="https://toontastic.sunrise.games/blog/toontown/entry/silly_meter_zips_to_a#comment-1364561322000"/>
        <published>2013-03-29T05:48:42-07:00</published>
        <updated>2013-03-29T05:48:42-07:00</updated> 
        <content type="html">Woah! The Silly Meter reached the top!? I can&apos;t wait to go to my Estate and see my doodle, Choo-Choo, TALK TO ME! And I think I saw DAISY at TOONTOWN CENTRAL the other day! Wow, this April Toons&apos; Week is gonna be sillier than I thought!</content>
    </entry>
        <entry>
        <id>https://toontastic.sunrise.games/blog/toontown/entry/silly_meter_zips_to_a#comment-1364561229000</id> 
        <title type="html">Re: Silly Meter Zips to a Zany Zenith!</title>
        <author><name>Magical Crocodile </name></author>
        <link rel="alternate" type="text/html" href="https://toontastic.sunrise.games/blog/toontown/entry/silly_meter_zips_to_a#comment-1364561229000"/>
        <published>2013-03-29T05:47:09-07:00</published>
        <updated>2013-03-29T05:47:09-07:00</updated> 
        <content type="html">Happy Early April Toons week, good thing it came early I don&apos;t like waiting at all! </content>
    </entry>
        <entry>
        <id>https://toontastic.sunrise.games/blog/toontown/entry/silly_meter_zips_to_a#comment-1364560217000</id> 
        <title type="html">Re: Silly Meter Zips to a Zany Zenith!</title>
        <author><name>SupaBounce</name></author>
        <link rel="alternate" type="text/html" href="https://toontastic.sunrise.games/blog/toontown/entry/silly_meter_zips_to_a#comment-1364560217000"/>
        <published>2013-03-29T05:30:17-07:00</published>
        <updated>2013-03-29T05:30:17-07:00</updated> 
        <content type="html">WOOHOO!!! Flying Pies To Falling Safes, Toons ,Cant Ya Get Crazier Still?! I Wonder What That Last Surprise Is... </content>
    </entry>
        <entry>
        <id>https://toontastic.sunrise.games/blog/toontown/entry/silly_meter_zips_to_a#comment-1364559308000</id> 
        <title type="html">Re: Silly Meter Zips to a Zany Zenith!</title>
        <author><name>Flame Melody</name></author>
        <link rel="alternate" type="text/html" href="https://toontastic.sunrise.games/blog/toontown/entry/silly_meter_zips_to_a#comment-1364559308000"/>
        <published>2013-03-29T05:15:08-07:00</published>
        <updated>2013-03-29T05:15:08-07:00</updated> 
        <content type="html">This is so awesome! The Silly Meter is back! I hope more silly stuff happen!</content>
    </entry>
        <entry>
        <id>https://toontastic.sunrise.games/blog/toontown/entry/silly_meter_zips_to_a#comment-1364558253000</id> 
        <title type="html">Re: Silly Meter Zips to a Zany Zenith!</title>
        <author><name>Enterprise-D ( uber in training )</name></author>
        <link rel="alternate" type="text/html" href="https://toontastic.sunrise.games/blog/toontown/entry/silly_meter_zips_to_a#comment-1364558253000"/>
        <published>2013-03-29T04:57:33-07:00</published>
        <updated>2013-03-29T04:57:33-07:00</updated> 
        <content type="html">OOO! I wasn&apos;t expecting the meter to fill up that quickly! I can&apos;t wait to see my doodle, Romulus, talk to me :D :D or the low gravity :o</content>
    </entry>
    </feed>

