{
	LOGIN_INTRO:	"Log in to make the following changes to your account:",
	PURCHASE_MEMBERSHIP: "Purchase Membership",
	UPDATE_PROFILE:	"Update Profile",
	CHANGE_CHAT_SETTINGS: "Change Chat Settings",
	CHANGE_MEMBERSHIP: "Cancel Membership",
	LINK__PARENT_CHILD_ACCOUNTS: "Link Parent & Child Accounts",
	YOU_ARE_PARENT: "Hey Parents!\\n\\nCreate a Parent Account to manage your child's account settings, including chat and purchasing a Membership. First create your own Parent Account, then link to your child's account using the Account Manager.",
	ACCOUNT_MANAGER:				"Account Manager",
	LOGOUT:							"Close",
	LOG_OUT:						"Log out",
	LOGIN:							"Login",
	MANAGE_MEMBERSHIPS:				"Manage Memberships",
	CURRENT_E_MAIL_SUBSCRIPTIONS:	"Current E-mail Subscriptions",
	SUBSCRIBE_TO_NEWSLETTER:		"Subscribe to Toontown News",
	S_ACCOUNT_DETAILS:				"'s Account Details",
	DISNEYS_ONLINE_COMMUNITY:		"Disney's Online Community",
	ACCOUNT_DETAILS:				"Account Details",
	MANAGE_MEMBERSHIP:				"Manage Membership",
	E_MAIL_SUBSCRIPTIONS:			"E-mail Subscriptions",
	COMMUNITY_SETTINGS:				"Community Settings",
	ACCOUNT_ID:						"Account ID",
	D_NAME:							"D-Name",
	FIRST_NAME:						"First Name",
	LAST_NAME:						"Last Name",
	E_MAIL:							"E-mail",
	ADDRESS:						"Address",
	CITY:							"City",
	STATE:							"State",
	STATE_PROVINCE:					"State/Province",
	COUNTRY:						"Country",
	ZIP_CODE:						"Zip Code",
	PARENTS_E_MAIL:					"Parent's E-mail",
	SAVE:							"Save",
	CHANGE_PASSWORD:				"Change Password",
	DELETE_ACCOUNT:					"Delete Account",
	REMOVE_ACCOUNT:					"Remove Account",
	PARENTS_GUIDE:					"Parent's Guide",
	SPEEDCHAT:						"SpeedChat Plus",
	OPENCHAT:						"OpenChat",
	WITH_LIMITED_TRUE_FRIENDS:		"With Limited True Friends",
	WITH_UNLIMITED_TRUE_FRIENDS:	"With Unlimited True Friends",
	WITH_ANY_DISNEY_MEMBER:			"With Any Disney Member",
	UPLOAD_CONTENT:					"Upload Content",
	POST_TO_MESSAGE_BOARDS:			"Post to Message Boards",
	ACCOUNT:						"Account",
	LINK_AN_ACCOUNT_TITLE:			"Link Accounts",
	LINK_AN_ACCOUNT:				"Link An Account?",
	ACCOUNT_LINKED_TITLE:			"Accounts Linked",
	ACCOUNT_LINKED:					"Linking successful. Newly linked account has been added to the family member list.",
	BECOME_A_MEMBER:				"Become A Member",
	CANCEL_MEMBERSHIP:				"Cancel Membership",
	WORLD_OF_CARS_ONLINE_SPONSORSHIP:"Toontown Online",
	MEMBERSHIP_INFO:				"Toontown Online",
	PURCHASED_BY:					"Purchased By",
	PURCHASE_TYPE:					"Purchase Type",
	NEXT_BILL_DATE:					"Next Bill Date",
	NEXT_BILL_AMOUNT:				"Amount",
	ACCOUNT_EXPIRES:				"Account Expires",
	BILLING_ADDRESS:				"Billing Address 1",
	BILLING_ADDRESS_2:              "Billing Address 2",
	SHIPPING_ADDRESS:				"Shipping Address",
	SHIPPING_ADDRESS_DIFFERENT:		"Shipping address different.",
	OK:								"OK",
	DELETE_HELP:					"Delete Help",
	DELETE_HELP_MESSAGE:			"This will delete your account, destroying any data associated with it.",
	DELETE:							"Delete",
	DELETE_PROMPT:					"Are you sure you want to delete this account?",
	REMOVE_HELP:					"Remove Help",
	REMOVE_HELP_MESSAGE:			"This will unlink the currently selected account from your account.",
	REMOVE:							"Remove",
	REMOVE_PROMPT:					"Are you sure you want to unlink this account?",
	PARENT_LOGIN_TO_CHANGE:			"Parent Login To Change",
	HAS_AN_ACTIVE_SUBSCRIPTION:		"has an active subscription.",
	HAS_AN_INACTIVE_SUBSCRIPTION:	"is a free player.",
	SPEEDCHAT_PLUS_HELP:			"SpeedChat Plus allows chat with other Disney members by using words included in the Disney SpeedChat Plus dictionary. Words that are not in the dictionary will be highlighted in red, and you can choose alternative words prior to sending your message. If you choose to turn off SpeedChat Plus, you will be defaulted to SpeedChat, where you can chat with other members by choosing from a pre-approved list of written questions and statements.",
	OPEN_CHAT_LIMITED_HELP:			"True Friends are friends or family who you know personally and with whom you have given or received a True Friends Code [a game-generated token] in order to establish your True Friend status and openly chat together. True Friends Codes must be given or received outside of Disney.com.\\nLimited True Friends means there must be parental approval before any True Friends Code is given or accepted. This is recommended for children who are new to chatting online.\\n\\nUnlimited True Friends means True Friends Codes can be generated and accepted without parental approval. This is recommended for anyone who understands how to make friends safely online.\\n\\nOpen Chat with Any Disney Member means chatting and making friends with other members in the Disney community without exchanging a Token (True Friends Code). This feature is not currently available on Disney sites.",
	OPEN_CHAT_UNLIMITED_HELP:		"True Friends are friends or family who you know personally and with whom you have given or received a True Friends Code [a game-generated token] in order to establish your True Friend status and openly chat together. True Friends Codes must be given or received outside of Disney.com.\\nLimited True Friends means there must be parental approval before any True Friends Code is given or accepted. This is recommended for children who are new to chatting online.\\n\\nUnlimited True Friends means True Friends Codes can be generated and accepted without parental approval. This is recommended for anyone who understands how to make friends safely online.\\n\\nOpen Chat with Any Disney Member means chatting and making friends with other members in the Disney community without exchanging a Token (True Friends Code). This feature is not currently available on Disney sites.",
	OPEN_CHAT_ALL_HELP:				"True Friends are friends or family who you know personally and with whom you have given or received a True Friends Code [a game-generated token] in order to establish your True Friend status and openly chat together. True Friends Codes must be given or received outside of Disney.com.\\n\\nLimited True Friends means there must be parental approval before any True Friends Code is given or accepted. This is recommended for children who are new to chatting online.\\n\\nUnlimited True Friends means True Friends Codes can be generated and accepted without parental approval. This is recommended for anyone who understands how to make friends safely online.\\n\\nOpen Chat with Any Disney Member means chatting and making friends with other members in the Disney community without exchanging a Token (True Friends Code). This feature is currently only available in Disney Pirates Online.",
	OPEN_CHAT_HOW_TO_ENABLE:		"Toontown Online does not provide the Open Chat feature in the game.",
	UPLOAD_ALLOW_HELP:				"Upload Content means adding personal pictures, stories, reviews, and more to Disney sites and Disney Public Forums which contain User-Generated Content. User-Generated Content could include uploaded photos, stories and/or reviews as well as posts to message boards and participation in open chat.",
	MESSAGE_BOARD_ALLOW_HELP:		"Post to Message Boards means posting comments on Disney Message Boards.",
	COMMUNITY_SETTINGS_SAVED:		"The Community Settings have been saved.",
	CONTINUE:						"Continue",
	I_AGREE:						"I agree",
	TERMS_OF_USE:					"Terms of Use",
	PRINTABLE_VERSION:				"Printable Version",
	TERMS_OF_USE_MESSAGE_1:			"You need to accept our Terms of use before you or your child can participate in Disney Public Forums.  You must read the Terms of Use set forth below, make sure you understand them, and certify to the statement below, indicating your acknowledgement and acceptance of those terms.",
	TERMS_OF_USE_MESSAGE_2:			"The Terms of Use contain important provisions governing your and our rights including, among other things, acceptable conduct on the Walt Disney Internet Group family of sites (including Disney.com, and other Internet sites affiliated with The Walt Disney Company), intellectual property rights (including our right to use information, content and materials you submit to us), and other rights and remedies available to you and us.",
	CHANGE_PASSWORD_TITLE:			"Change Password",
	OLD_PASSWORD:					"Old Password:",
	NEW_PASSWORD:					"New Password:",
	CONFIRM_PASSWORD:				"Confirm Password:",
	CHANGE_PASSWORD_SUCCESS:		"Your password has been changed. Remember, don't share your password with anyone.",
	CHANGE_PASSWORD_FAIL:			"Your password was not changed.  Please try again.",
	SUBMIT:							"Submit",
	STATE_ZIP_CODE:					"State / Zip Code",
	COPPA_TEXT_1:					"Due to Children's Online Privacy Protection Act (COPPA) regulations, a parent email address on a child's account can only be modified by a parent.",
	COPPA_TEXT_2:					"If this e-mail needs to be changed, a parent must link to this account and log in before updating it.",
	SELECT_A_DNAME:					"Select a D-Name",
	PENDING:						"Pending",
	DECLINDED:						"Declinded",
	UNKNOWN:						"Unknown",
	PENDING_DNAME_HELP:				"The D-Name you selected is currently being evaluated to make sure it fits Disney's naming standards.  Until it is evaluated, you will be given a temporary guest name.",
	DECLINED_DNAME_HELP:			"The D-Name you selected was declined because it violated Disney's naming standards.  Please create a new D-Name.  Until you create a new D-Name, you will be given a temporary guest name.",
	UNKNOWN_DNAME_HELP:				"The status of your D-Name is currently unavailable.  Until it becomes available, you will be given a temporary guest name.",
	CANCEL:							"Cancel",
	EXIT:							"Exit",
	NO_SUBSCRIPTION:				"Toontown is fun for all ages! As a Member, you can buy the best Doodles, gags, clothes, furniture, and gardening kits!\\n\\nPlus, you can go anywhere and do anything!",
	NO_SUBSCRIPTION_HOH:			"Toontown is fun for all ages! As a Member, you can buy the best Doodles, gags, clothes, furniture, and gardening kits!\\n\\nPlus, you can go anywhere and do anything!",
	DNAME_ENTRY_PROMPT:				"Please enter a new D-Name.",
	LINK_ACCOUNT_PROMPT:			"Enter the Account ID and Password for the account you wish to link to this Parent Account.",
	USERNAME:						"Account ID:",
	PASSWORD:						"Password:",
	NO_NEWSLETTER_SUBSCRIPTIONS_MESSAGE:"This account is not subscribed to any newsletters.",
	CANCEL_MEMBERSHIP_LINK:			"<a href='event:cancelMembership'><u>Cancel Membership</u></a>",
	CANCEL_DIALOG_TITLE:			"Cancel My Membership",
	CANCEL_MEMBERSHIP_MESSAGE:		"You can cancel your Membership online or by phone.  You will receive a confirmation e-mail once your Membership has been successfully cancelled.",
	CANCEL_MEMBERSHIP_MESSAGE_2:	"This subcription has already been canceled.",
	CANCEL_HELP:					"To cancel by phone, please contact Customer Service at 1-888-507-1144. Customer Support Representatives are available Monday through Friday 8:30 a.m. to 12:30 p.m. Pacific Time.",
	CANCEL_CONFIRM_MESSAGE:			"Please verify the following information:",
	CANCEL_CONFIRM_TITLE:			"Membership Snapshot",
	MEMBERSHIP_TYPE:				"Membership Type",
	MEMBER_SINCE:					"Member Since",
	RENEWAL_DATE:					"Renewal Date",
	CANCEL_CONFIRM_MESSAGE_TWO:		"Once your membership is cancelled, you can continue to play Toontown as a Free Player – for as long as you want, whenever you want.",
	MEMBERSHIP_PAGE_LINK:			"<a href='event:membershipPage'><u>Learn More About Membership Options</u></a>",
	CANCEL_CONFIRM_MESSAGE_THREE:	"Please indicate why you are cancelling your Membership.  This will help us improve the overall quality of Toontown for our guests.",
	CANCEL_COMPLETE_TITLE:			"Membership Cancelled",
	CANCEL_COMPLETE_SUCCESS:		"A confirmation of cancellation has been sent to ",
	CANCEL_COMPLETE_FAIL:			"Failed to cancel your subscription.\\nTo cancel by phone, please call 1-888-507-1144 to speak to a customer service representative.\\nCustomer Support Hours: Monday through Friday 8:30 a.m. to 12:30 p.m. Pacific Time.",
	CANCEL_COMPLETE_OK:				"Go to Toon HQ",
	CANCEL_COMPLETE_EXIT:			"Play Now",
	NONE:							"None",
	LINK_ERROR_MESSAGE:				"The account data is incorrect or the account is not eligible for linking.  Please check the account data and try again.",
	ERROR:							"Error",
	ACCOUNT_NOT_VALIDATED:			"Account Not Validated",
	ACCOUNT_NOT_VALIDATED_MESSAGE:	"You will need e-mail validation to activate this feature.",
	ACCOUNT_VALIDATION_BUTTON:		"Send Email Validation Now",
	VALIDATE_EMAIL_SENT_MESSAGE:	"An e-mail has been sent to the e-mail address associated with your account. To activate your request, please click the link in the e-mail.",
	VISA:							"Visa",
	MASTERCARD:						"MasterCard",
	AMERICAN_EXPRESS:				"American Express",
	DINERS_CLUB:					"Diners Club",
	DISCOVER_CARD:					"Discover Card",
	PAYPAL:							"PayPal",
	GIFT_CARD:						"Gift Card",
	PREPAID:						"Game Card/Guest Pass",
	LOGIN_MESSAGE:					"Please log in to manage your account.",
	LOGIN_ERROR_MESSAGE:			"Login attempt failed, please try again.",
	ACCOUNT_ALREADY_LINKED:			"This account appears to be already in your family structure.",
	SUBSCRIBE_TO_NEWSLETTER:		"Subscribe",
	
	LOGIN_TITLE: 					"Login",
	FORGOT_PASSWORD:				"Forgot Password?",
	FORGOT_ACCOUNT_ID:				"Forgot Account ID?",
	SIGN_UP:						"Sign Up",
	SIGN_UP_MESSAGE:				"Click the Sign Up button to get one now.",
	NEED_ACCOUNT:					"Need an Account?",
	ALREADY_HAVE_ID:				"Already have an Account ID?",
	LOG_IN_MESSAGE:					"Please login to get started",
	
	LEGACY_MIGRATION:				"Update Your Account",
	MIGRATION_TITLE:				"Update Your Account",
	MIGRATION_TEXT:					"You need to update your account information.",
	MIGRATION_YES:					"Yes",
	MIGRATION_NO:					"Later",
	
	ACCOUNT_UPDATE_BLANK_FIELDS_ERROR: "Please make sure the folowing fields are not empty: ",
	ACCOUNT_DETAILS_SAVED:		"The account information has been updated.",
	CHILD_SC_PLUS_TEXT:				"<a href='event:speedchatplus'><u>Click here</u></a> to send an email so your parent can enable SpeedChat or Open Chat. Once enabled, you will be able to chat with other Toons in the online world of Toontown.",
	OOPS:							"Oops",
	CANCELLATION_FAILED:            "Cancellation Failed",
	NOT_REQUIRED:					"*Not required",
	UNSUBSCRIBE_QUESTION:           "Unsubscribe?",
	ARE_YOU_SURE_UNSUBSCRIBE:       "Are you sure you want to unsubscribe from this newsletter?",
	CONFIRM_CHAT_PREFERENCES:       "Confirm Chat Preferences",
	CONFIRM_DISABLE_SC_AND_OC:      "Your chat preferences are set to OpenChat and SpeedChat Plus. To change to SpeedChat only, please click OK to proceed with disabling the OpenChat and SpeedChat Plus features.",
	CONFIRM_ENABLE_SC_AND_OC:       "Enabling OpenChat will also allow you to use SpeedChat Plus in Pixie Hollow and Cars. Please click OK to continue.",
	
	CANCEL_MEMBERSHIP_MESSAGE_3:	"You really want to cancel this membership? 'Cause if you do, the Cogs win!",
	MAXIMUM_MEMBERS_REACHED:        "No more Toon Room!",
	MAXIMUM_MEMBERS_REACHED_MSG:    "A family account can only have six Members, and guess how many you have? That’s right, SIX! Please remove one, or log in under a different account and add additional Members. Thanks!",
	CANCELLATION_ERROR_TITLE:       "Whoops - Cancellation error!",
	CANCELLATION_ERROR_MSG:         "If you have any questions, please contact us at: billing@toontown.com",
	GET_YOUR_PARENT:                "Grab your Parent,",
	NEED_YOUR_PARENT_TO_CANCEL_MSG: "To cancel your Membership, the parent who purchased it has to log into the Account Manager.",
	SELECT_MEMBER:                  "Pick a Member",
	CONTACT_MEMBER_SERVICES:	    "If you are having trouble updating your billing information above, please contact Customer Service at 1-888-507-1144 or by email at billing@toontown.com. Customer Support Representatives are available Monday through Friday 8:30 a.m. to 12:30 p.m. Pacific Time. No crank Cog calls, please.",
	ALREADY_CANCELLED_MSG:          "Your Toontown Membership has been cancelled. It will remain active until EXPIREDATE. If you have any questions, you can contact us via email at billing@toontown.com or toll-free at 1-888-507-1144. Customer Support Representatives are available Monday through Friday 8:30 a.m. to 12:30 p.m. Pacific Time. Thanks for all your Cog-fighting help!",
	ACCOUNT_NOT_MIGRATED:           "This account has not been updated to the new Toontown account system, to cancel your Membership click Continue below.",
	LEGACY_MIGRATION_TITLE:         "Continue to Cancel"
}